0307_Hw1_Hw2/Hw2/simulation/qsim/number_count.msim.vcd
$comment
	File created using the following command:
		vcd file number_count.msim.vcd -direction
$end
$date
	Mon Mar 14 14:23:27 2022
$end
$version
	ModelSim Version 2020.1
$end
$timescale
	1ps
$end

$scope module number_count_vlg_vec_tst $end
$var reg 1 ! CK $end
$var reg 1 " Res $end
$var wire 1 # Q [3] $end
$var wire 1 $ Q [2] $end
$var wire 1 % Q [1] $end
$var wire 1 & Q [0] $end

$scope module i1 $end
$var wire 1 ' gnd $end
$var wire 1 ( vcc $end
$var wire 1 ) unknown $end
$var tri1 1 * devclrn $end
$var tri1 1 + devpor $end
$var tri1 1 , devoe $end
$var wire 1 - ~QUARTUS_CREATED_GND~I_combout $end
$var wire 1 . Res~input_o $end
$var wire 1 / CK~input_o $end
$var wire 1 0 E|inst6~combout $end
$var wire 1 1 C|inst4~1_combout $end
$var wire 1 2 C|inst6~0_combout $end
$var wire 1 3 C|inst2~1_combout $end
$var wire 1 4 A|inst4~3_combout $end
$var wire 1 5 A|inst5~combout $end
$var wire 1 6 B|inst4~2_combout $end
$var wire 1 7 A|inst3~0_combout $end
$var wire 1 8 A|inst4~1_combout $end
$var wire 1 9 B|inst4~1_combout $end
$var wire 1 : B|inst3~0_combout $end
$var wire 1 ; B|inst4~3_combout $end
$var wire 1 < B|inst5~combout $end
$var wire 1 = B|inst4~4_combout $end
$var wire 1 > B|inst2~1_combout $end
$var wire 1 ? B|inst6~combout $end
$var wire 1 @ A|inst4~2_combout $end
$var wire 1 A A|inst3~combout $end
$var wire 1 B A|inst4~4_combout $end
$var wire 1 C A|inst4~5_combout $end
$var wire 1 D A|inst2~1_combout $end
$var wire 1 E A|inst6~combout $end
$var wire 1 F C|inst3~combout $end
$var wire 1 G C|inst4~2_combout $end
$var wire 1 H C|inst5~combout $end
$var wire 1 I E|inst4~1_combout $end
$var wire 1 J E|inst4~2_combout $end
$var wire 1 K E|inst2~1_combout $end
$var wire 1 L D|inst4~1_combout $end
$var wire 1 M D|inst4~2_combout $end
$var wire 1 N D|inst2~1_combout $end
$var wire 1 O D|inst5~combout $end
$upscope $end
$upscope $end
$enddefinitions $end
#0
$dumpvars
0!
1"
0&
0%
0$
0#
0'
1(
x)
1*
1+
1,
0-
1.
0/
00
01
02
03
14
15
06
17
08
09
1:
0;
0<
0=
0>
0?
0@
0A
0B
0C
0D
0E
0F
0G
1H
0I
0J
0K
0L
0M
0N
1O
$end
#5000
1!
1/
1F
1A
#10000
0"
0!
0.
0/
1L
0F
1B
0A
1;
11
1G
1C
07
#15000
1!
1/
0L
1D
0;
13
0H
05
1&
1$
1E
1@
18
04
12
#20000
0!
0/
1L
1I
0D
1;
03
1J
#25000
1!
1/
0L
1K
1D
0;
13
16
10
01
0J
0G
#30000
0!
0/
1L
0K
0D
1;
03
1=
0:
#35000
1!
1/
0L
0I
1H
1F
1D
1>
00
0$
06
14
11
1?
0@
08
02
1<
1%
0C
0=
#40000
0!
0/
1L
0F
0D
0>
1:
17
1G
#45000
1!
1/
0L
0E
1A
0?
0;
15
13
0&
0H
0<
0%
1$
18
04
12
0G
19
#50000
0!
0/
1L
1I
0A
1;
03
1=
0:
#55000
1!
1/
0L
0I
1H
1F
1A
1>
14
0$
1?
08
02
1<
1%
09
#60000
0!
0/
1L
0F
0A
0>
1G
#65000
1!
1/
0L
1A
1>
13
0H
1$
04
12
0=
#70000
0!
0/
1L
1I
0A
0>
03
1J
1:
#75000
1!
1/
0L
1K
1A
0?
0;
13
0J
18
10
0<
0%
01
0G
#80000
0!
0/
1L
0K
0A
1;
03
1M
#85000
1!
1/
1N
0I
1H
1F
1A
0;
00
0$
0M
19
14
11
08
02
0O
1#
0L
0B
01
09
#90000
0!
0/
0N
0F
0A
#95000
1!
1/
1O
1F
1B
1A
11
0#
#100000
0!
0/
1L
0F
0A
1;
1C
1G
07
#105000
1!
1/
0L
1D
0;
13
0H
05
1&
1$
1E
1@
18
04
12
#110000
0!
0/
1L
1I
0D
1;
03
1J
#115000
1!
1/
0L
1K
1D
0;
13
16
10
01
0J
0G
#120000
0!
0/
1L
0K
0D
1;
03
1=
0:
#125000
1!
1/
0L
0I
1H
1F
1D
1>
00
0$
06
14
11
1?
0@
08
02
1<
1%
0C
0=
#130000
0!
0/
1L
0F
0D
0>
1:
17
1G
#135000
1!
1/
0L
0E
1A
0?
0;
15
13
0&
0H
0<
0%
1$
18
04
12
0G
19
#140000
0!
0/
1L
1I
0A
1;
03
1=
0:
#145000
1!
1/
0L
0I
1H
1F
1A
1>
14
0$
1?
08
02
1<
1%
09
#150000
0!
0/
1L
0F
0A
0>
1G
#155000
1!
1/
0L
1A
1>
13
0H
1$
04
12
0=
#160000
0!
0/
1L
1I
0A
0>
03
1J
1:
#165000
1!
1/
0L
1K
1A
0?
0;
13
0J
18
10
0<
0%
01
0G
#170000
0!
0/
1L
0K
0A
1;
03
1M
#175000
1!
1/
1N
0I
1H
1F
1A
0;
00
0$
0M
19
14
11
08
02
0O
1#
0L
0B
01
09
#180000
0!
0/
0N
0F
0A
#185000
1!
1/
1O
1F
1B
1A
11
0#
#190000
0!
0/
1L
0F
0A
1;
1C
1G
07
#195000
1!
1/
0L
1D
0;
13
0H
05
1&
1$
1E
1@
18
04
12
#200000
0!
0/
1L
1I
0D
1;
03
1J
#205000
1!
1/
0L
1K
1D
0;
13
16
10
01
0J
0G
#210000
0!
0/
1L
0K
0D
1;
03
1=
0:
#215000
1!
1/
0L
0I
1H
1F
1D
1>
00
0$
06
14
11
1?
0@
08
02
1<
1%
0C
0=
#220000
0!
0/
1L
0F
0D
0>
1:
17
1G
#225000
1!
1/
0L
0E
1A
0?
0;
15
13
0&
0H
0<
0%
1$
18
04
12
0G
19
#230000
0!
0/
1L
1I
0A
1;
03
1=
0:
#235000
1!
1/
0L
0I
1H
1F
1A
1>
14
0$
1?
08
02
1<
1%
09
#240000
0!
0/
1L
0F
0A
0>
1G
#245000
1!
1/
0L
1A
1>
13
0H
1$
04
12
0=
#250000
0!
0/
1L
1I
0A
0>
03
1J
1:
#255000
1!
1/
0L
1K
1A
0?
0;
13
0J
18
10
0<
0%
01
0G
#260000
0!
0/
1L
0K
0A
1;
03
1M
#265000
1!
1/
1N
0I
1H
1F
1A
0;
00
0$
0M
19
14
11
08
02
0O
1#
0L
0B
01
09
#270000
0!
0/
0N
0F
0A
#275000
1!
1/
1O
1F
1B
1A
11
0#
#280000
0!
0/
1L
0F
0A
1;
1C
1G
07
#285000
1!
1/
0L
1D
0;
13
0H
05
1&
1$
1E
1@
18
04
12
#290000
0!
0/
1L
1I
0D
1;
03
1J
#295000
1!
1/
0L
1K
1D
0;
13
16
10
01
0J
0G
#300000
0!
0/
1L
0K
0D
1;
03
1=
0:
#305000
1!
1/
0L
0I
1H
1F
1D
1>
00
0$
06
14
11
1?
0@
08
02
1<
1%
0C
0=
#310000
0!
0/
1L
0F
0D
0>
1:
17
1G
#315000
1!
1/
0L
0E
1A
0?
0;
15
13
0&
0H
0<
0%
1$
18
04
12
0G
19
#320000
0!
0/
1L
1I
0A
1;
03
1=
0:
#325000
1!
1/
0L
0I
1H
1F
1A
1>
14
0$
1?
08
02
1<
1%
09
#330000
0!
0/
1L
0F
0A
0>
1G
#335000
1!
1/
0L
1A
1>
13
0H
1$
04
12
0=
#340000
0!
0/
1L
1I
0A
0>
03
1J
1:
#345000
1!
1/
0L
1K
1A
0?
0;
13
0J
18
10
0<
0%
01
0G
#350000
0!
0/
1L
0K
0A
1;
03
1M
#355000
1!
1/
1N
0I
1H
1F
1A
0;
00
0$
0M
19
14
11
08
02
0O
1#
0L
0B
01
09
#360000
0!
0/
0N
0F
0A
#365000
1!
1/
1O
1F
1B
1A
11
0#
#370000
0!
0/
1L
0F
0A
1;
1C
1G
07
#375000
1!
1/
0L
1D
0;
13
0H
05
1&
1$
1E
1@
18
04
12
#380000
0!
0/
1L
1I
0D
1;
03
1J
#385000
1!
1/
0L
1K
1D
0;
13
16
10
01
0J
0G
#390000
0!
0/
1L
0K
0D
1;
03
1=
0:
#395000
1!
1/
0L
0I
1H
1F
1D
1>
00
0$
06
14
11
1?
0@
08
02
1<
1%
0C
0=
#400000
0!
0/
1L
0F
0D
0>
1:
17
1G
#405000
1!
1/
0L
0E
1A
0?
0;
15
13
0&
0H
0<
0%
1$
18
04
12
0G
19
#410000
0!
0/
1L
1I
0A
1;
03
1=
0:
#415000
1!
1/
0L
0I
1H
1F
1A
1>
14
0$
1?
08
02
1<
1%
09
#420000
0!
0/
1L
0F
0A
0>
1G
#425000
1!
1/
0L
1A
1>
13
0H
1$
04
12
0=
#430000
0!
0/
1L
1I
0A
0>
03
1J
1:
#435000
1!
1/
0L
1K
1A
0?
0;
13
0J
18
10
0<
0%
01
0G
#440000
0!
0/
1L
0K
0A
1;
03
1M
#445000
1!
1/
1N
0I
1H
1F
1A
0;
00
0$
0M
19
14
11
08
02
0O
1#
0L
0B
01
09
#450000
0!
0/
0N
0F
0A
#455000
1!
1/
1O
1F
1B
1A
11
0#
#460000
0!
0/
1L
0F
0A
1;
1C
1G
07
#465000
1!
1/
0L
1D
0;
13
0H
05
1&
1$
1E
1@
18
04
12
#470000
0!
0/
1L
1I
0D
1;
03
1J
#475000
1!
1/
0L
1K
1D
0;
13
16
10
01
0J
0G
#480000
0!
0/
1L
0K
0D
1;
03
1=
0:
#485000
1!
1/
0L
0I
1H
1F
1D
1>
00
0$
06
14
11
1?
0@
08
02
1<
1%
0C
0=
#490000
0!
0/
1L
0F
0D
0>
1:
17
1G
#495000
1!
1/
0L
0E
1A
0?
0;
15
13
0&
0H
0<
0%
1$
18
04
12
0G
19
#500000
0!
0/
1L
1I
0A
1;
03
1=
0:
#505000
1!
1/
0L
0I
1H
1F
1A
1>
14
0$
1?
08
02
1<
1%
09
#510000
0!
0/
1L
0F
0A
0>
1G
#515000
1!
1/
0L
1A
1>
13
0H
1$
04
12
0=
#520000
0!
0/
1L
1I
0A
0>
03
1J
1:
#525000
1!
1/
0L
1K
1A
0?
0;
13
0J
18
10
0<
0%
01
0G
#530000
0!
0/
1L
0K
0A
1;
03
1M
#535000
1!
1/
1N
0I
1H
1F
1A
0;
00
0$
0M
19
14
11
08
02
0O
1#
0L
0B
01
09
#540000
0!
0/
0N
0F
0A
#545000
1!
1/
1O
1F
1B
1A
11
0#
#550000
0!
0/
1L
0F
0A
1;
1C
1G
07
#555000
1!
1/
0L
1D
0;
13
0H
05
1&
1$
1E
1@
18
04
12
#560000
0!
0/
1L
1I
0D
1;
03
1J
#565000
1!
1/
0L
1K
1D
0;
13
16
10
01
0J
0G
#570000
0!
0/
1L
0K
0D
1;
03
1=
0:
#575000
1!
1/
0L
0I
1H
1F
1D
1>
00
0$
06
14
11
1?
0@
08
02
1<
1%
0C
0=
#580000
0!
0/
1L
0F
0D
0>
1:
17
1G
#585000
1!
1/
0L
0E
1A
0?
0;
15
13
0&
0H
0<
0%
1$
18
04
12
0G
19
#590000
0!
0/
1L
1I
0A
1;
03
1=
0:
#595000
1!
1/
0L
0I
1H
1F
1A
1>
14
0$
1?
08
02
1<
1%
09
#600000
0!
0/
1L
0F
0A
0>
1G
#605000
1!
1/
0L
1A
1>
13
0H
1$
04
12
0=
#610000
0!
0/
1L
1I
0A
0>
03
1J
1:
#615000
1!
1/
0L
1K
1A
0?
0;
13
0J
18
10
0<
0%
01
0G
#620000
0!
0/
1L
0K
0A
1;
03
1M
#625000
1!
1/
1N
0I
1H
1F
1A
0;
00
0$
0M
19
14
11
08
02
0O
1#
0L
0B
01
09
#630000
0!
0/
0N
0F
0A
#635000
1!
1/
1O
1F
1B
1A
11
0#
#640000
0!
0/
1L
0F
0A
1;
1C
1G
07
#645000
1!
1/
0L
1D
0;
13
0H
05
1&
1$
1E
1@
18
04
12
#650000
0!
0/
1L
1I
0D
1;
03
1J
#655000
1!
1/
0L
1K
1D
0;
13
16
10
01
0J
0G
#660000
0!
0/
1L
0K
0D
1;
03
1=
0:
#665000
1!
1/
0L
0I
1H
1F
1D
1>
00
0$
06
14
11
1?
0@
08
02
1<
1%
0C
0=
#670000
0!
0/
1L
0F
0D
0>
1:
17
1G
#675000
1!
1/
0L
0E
1A
0?
0;
15
13
0&
0H
0<
0%
1$
18
04
12
0G
19
#680000
0!
0/
1L
1I
0A
1;
03
1=
0:
#685000
1!
1/
0L
0I
1H
1F
1A
1>
14
0$
1?
08
02
1<
1%
09
#690000
0!
0/
1L
0F
0A
0>
1G
#695000
1!
1/
0L
1A
1>
13
0H
1$
04
12
0=
#700000
0!
0/
1L
1I
0A
0>
03
1J
1:
#705000
1!
1/
0L
1K
1A
0?
0;
13
0J
18
10
0<
0%
01
0G
#710000
0!
0/
1L
0K
0A
1;
03
1M
#715000
1!
1/
1N
0I
1H
1F
1A
0;
00
0$
0M
19
14
11
08
02
0O
1#
0L
0B
01
09
#720000
0!
0/
0N
0F
0A
#725000
1!
1/
1O
1F
1B
1A
11
0#
#730000
0!
0/
1L
0F
0A
1;
1C
1G
07
#735000
1!
1/
0L
1D
0;
13
0H
05
1&
1$
1E
1@
18
04
12
#740000
0!
0/
1L
1I
0D
1;
03
1J
#745000
1!
1/
0L
1K
1D
0;
13
16
10
01
0J
0G
#750000
0!
0/
1L
0K
0D
1;
03
1=
0:
#755000
1!
1/
0L
0I
1H
1F
1D
1>
00
0$
06
14
11
1?
0@
08
02
1<
1%
0C
0=
#760000
0!
0/
1L
0F
0D
0>
1:
17
1G
#765000
1!
1/
0L
0E
1A
0?
0;
15
13
0&
0H
0<
0%
1$
18
04
12
0G
19
#770000
0!
0/
1L
1I
0A
1;
03
1=
0:
#775000
1!
1/
0L
0I
1H
1F
1A
1>
14
0$
1?
08
02
1<
1%
09
#780000
0!
0/
1L
0F
0A
0>
1G
#785000
1!
1/
0L
1A
1>
13
0H
1$
04
12
0=
#790000
0!
0/
1L
1I
0A
0>
03
1J
1:
#795000
1!
1/
0L
1K
1A
0?
0;
13
0J
18
10
0<
0%
01
0G
#800000
0!
0/
1L
0K
0A
1;
03
1M
#805000
1!
1/
1N
0I
1H
1F
1A
0;
00
0$
0M
19
14
11
08
02
0O
1#
0L
0B
01
09
#810000
0!
0/
0N
0F
0A
#815000
1!
1/
1O
1F
1B
1A
11
0#
#820000
0!
0/
1L
0F
0A
1;
1C
1G
07
#825000
1!
1/
0L
1D
0;
13
0H
05
1&
1$
1E
1@
18
04
12
#830000
0!
0/
1L
1I
0D
1;
03
1J
#835000
1!
1/
0L
1K
1D
0;
13
16
10
01
0J
0G
#840000
0!
0/
1L
0K
0D
1;
03
1=
0:
#845000
1!
1/
0L
0I
1H
1F
1D
1>
00
0$
06
14
11
1?
0@
08
02
1<
1%
0C
0=
#850000
0!
0/
1L
0F
0D
0>
1:
17
1G
#855000
1!
1/
0L
0E
1A
0?
0;
15
13
0&
0H
0<
0%
1$
18
04
12
0G
19
#860000
0!
0/
1L
1I
0A
1;
03
1=
0:
#865000
1!
1/
0L
0I
1H
1F
1A
1>
14
0$
1?
08
02
1<
1%
09
#870000
0!
0/
1L
0F
0A
0>
1G
#875000
1!
1/
0L
1A
1>
13
0H
1$
04
12
0=
#880000
0!
0/
1L
1I
0A
0>
03
1J
1:
#885000
1!
1/
0L
1K
1A
0?
0;
13
0J
18
10
0<
0%
01
0G
#890000
0!
0/
1L
0K
0A
1;
03
1M
#895000
1!
1/
1N
0I
1H
1F
1A
0;
00
0$
0M
19
14
11
08
02
0O
1#
0L
0B
01
09
#900000
0!
0/
0N
0F
0A
#905000
1!
1/
1O
1F
1B
1A
11
0#
#910000
0!
0/
1L
0F
0A
1;
1C
1G
07
#915000
1!
1/
0L
1D
0;
13
0H
05
1&
1$
1E
1@
18
04
12
#920000
0!
0/
1L
1I
0D
1;
03
1J
#925000
1!
1/
0L
1K
1D
0;
13
16
10
01
0J
0G
#930000
0!
0/
1L
0K
0D
1;
03
1=
0:
#935000
1!
1/
0L
0I
1H
1F
1D
1>
00
0$
06
14
11
1?
0@
08
02
1<
1%
0C
0=
#940000
0!
0/
1L
0F
0D
0>
1:
17
1G
#945000
1!
1/
0L
0E
1A
0?
0;
15
13
0&
0H
0<
0%
1$
18
04
12
0G
19
#950000
0!
0/
1L
1I
0A
1;
03
1=
0:
#955000
1!
1/
0L
0I
1H
1F
1A
1>
14
0$
1?
08
02
1<
1%
09
#960000
0!
0/
1L
0F
0A
0>
1G
#965000
1!
1/
0L
1A
1>
13
0H
1$
04
12
0=
#970000
0!
0/
1L
1I
0A
0>
03
1J
1:
#975000
1!
1/
0L
1K
1A
0?
0;
13
0J
18
10
0<
0%
01
0G
#980000
0!
0/
1L
0K
0A
1;
03
1M
#985000
1!
1/
1N
0I
1H
1F
1A
0;
00
0$
0M
19
14
11
08
02
0O
1#
0L
0B
01
09
#990000
0!
0/
0N
0F
0A
#995000
1!
1/
1O
1F
1B
1A
11
0#
